%YAML 1.1
%TAG !u! tag:unity3d.com,2011:
--- !u!114 &11400000
MonoBehaviour:
  m_ObjectHideFlags: 0
  m_CorrespondingSourceObject: {fileID: 0}
  m_PrefabInternal: {fileID: 0}
  m_GameObject: {fileID: 0}
  m_Enabled: 1
  m_EditorHideFlags: 0
  m_Script: {fileID: 11500000, guid: aa44e0963b57b8e46b533971a05ccfd9, type: 3}
  m_Name: GameSettings
  m_EditorClassIdentifier: 
  gameMenu: {fileID: 114430290374422770, guid: 46970fd34e52df44da765f68565530bc, type: 2}
  levels:
  - {fileID: 11400000, guid: bca852201e1cb924a9908e321bee2b63, type: 2}
  - {fileID: 11400000, guid: 15b018196af4a6c4d828c254350f2d6a, type: 2}
  - {fileID: 11400000, guid: 5959d331e3a74bb4c9586f100b94b21b, type: 2}
  singlePaddle: {fileID: 114558388939732698, guid: 234fa39e8a654374ca728a1276ee8fa7,
    type: 2}
  hostPaddle: {fileID: 114558388939732698, guid: 62db149ef41b0154383ab92a01e6b207,
    type: 2}
  clientPaddle: {fileID: 114558388939732698, guid: a91c8d858b058ca43a4faa6d23617fa3,
    type: 2}
  balls:
  - {fileID: 114128151387940470, guid: 762654aee6246144bb9765e4c7c8c4a0, type: 2}
  - {fileID: 114128151387940470, guid: 51d295b0fdb84504cafa94114e042fd5, type: 2}
  - {fileID: 114128151387940470, guid: 4bb48ca4c930069438c9e3717f4cc69b, type: 2}
